# This is a sample menu.lst file. You should make some changes to it.
# The old install method of booting via the stage-files has been removed.
# Please install GRLDR boot strap code to MBR with the bootlace.com
# utility under DOS/Win9x or Linux.

title TEST test.bin
find --set-root /test.bin
kernel /test.bin

#title kernel.bin
#find --set-root /kernel.bin
#kernel /kernel.bin

title commandline
commandline

title reboot
reboot

title halt
halt

